0 1 0.79
0 2 0.65
0 3 0.73
0 4 1.05
0 5 1.02
0 6 0.6
0 7 0.4
0 8 0.65
0 9 0.54
0 10 0.53
0 11 0.31
0 12 0.11
0 13 0.49
0 14 0.78
0 15 1.11
0 16 0.94
0 17 1.04
0 18 0.35
0 19 0.78
0 20 0.83
0 21 0.98
0 22 1.24
1 2 0.22
1 3 0.26
1 4 1.2
1 5 1.3
1 6 0.22
1 7 0.85
1 8 1.18
1 9 0.75
1 10 0.65
1 11 0.55
1 12 0.65
1 13 0.63
1 14 0.74
1 15 0.71
1 16 0.45
1 17 1
1 18 1.12
1 19 1.41
1 20 1.11
1 21 1.53
1 22 1.42
2 3 0.12
2 4 1.52
2 5 1.54
2 6 0.32
2 7 0.88
2 8 1.26
2 9 0.78
2 10 0.71
2 11 0.56
2 12 0.59
2 13 0.77
2 14 0.52
2 15 0.45
2 16 0.29
2 17 0.72
2 18 0.87
2 19 1.08
2 20 0.98
2 21 1.67
2 22 1.22
3 4 1.38
3 5 1.51
3 6 0.45
3 7 0.99
3 8 1.16
3 9 0.95
3 10 0.9
3 11 0.67
3 12 0.8
3 13 0.86
3 14 0.41
3 15 0.37
3 16 0.2
3 17 0.6
3 18 0.98
3 19 1.24
3 20 0.94
3 21 1.69
3 22 1.3
4 5 0.06
4 6 0.98
4 7 0.56
4 8 0.28
4 9 0.45
4 10 0.64
4 11 0.87
4 12 0.93
4 13 0.74
4 14 1.69
4 15 1.83
4 16 1.53
4 17 2.05
4 18 1.33
4 19 1.56
4 20 2
4 21 0.86
4 22 2.22
5 6 1.12
5 7 0.58
5 8 0.29
5 9 0.49
5 10 0.63
5 11 0.85
5 12 0.91
5 13 0.7
5 14 1.8
5 15 1.69
5 16 1.61
5 17 2
5 18 1.22
5 19 1.74
5 20 1.92
5 21 1
5 22 2.26
6 7 0.69
6 8 0.88
6 9 0.5
6 10 0.42
6 11 0.31
6 12 0.43
6 13 0.36
6 14 0.79
6 15 0.77
6 16 0.58
6 17 1.01
6 18 0.89
6 19 1.23
6 20 1.01
6 21 1.35
6 22 1.38
7 8 0.3
7 9 0.33
7 10 0.38
7 11 0.39
7 12 0.37
7 13 0.38
7 14 1.13
7 15 1.31
7 16 1.35
7 17 1.58
7 18 0.74
7 19 1.09
7 20 1.32
7 21 0.69
7 22 1.6
8 9 0.34
8 10 0.38
8 11 0.53
8 12 0.7
8 13 0.47
8 14 1.41
8 15 1.72
8 16 1.43
8 17 1.66
8 18 1.01
8 19 1.27
8 20 1.68
8 21 0.77
8 22 2.15
9 10 0.12
9 11 0.29
9 12 0.54
9 13 0.17
9 14 1.32
9 15 1.32
9 16 1.11
9 17 1.44
9 18 0.92
9 19 1.23
9 20 1.31
9 21 1.07
9 22 1.84
10 11 0.22
10 12 0.4
10 13 0.05
10 14 1.02
10 15 1.21
10 16 0.91
10 17 1.47
10 18 0.85
10 19 1.37
10 20 1.32
10 21 1.18
10 22 1.91
11 12 0.26
11 13 0.15
11 14 0.82
11 15 1.13
11 16 0.82
11 17 1.07
11 18 0.67
11 19 1.06
11 20 1.12
11 21 1.11
11 22 1.49
12 13 0.41
12 14 0.8
12 15 1.1
12 16 0.85
12 17 0.97
12 18 0.44
12 19 0.77
12 20 0.9
12 21 1.09
12 22 1.23
13 14 1.06
13 15 1.17
13 16 1.06
13 17 1.33
13 18 0.86
13 19 1.27
13 20 1.23
13 21 1.13
13 22 1.6
14 15 0.4
14 16 0.28
14 17 0.26
14 18 0.78
14 19 0.85
14 20 0.53
14 21 1.71
14 22 0.97
15 16 0.18
15 17 0.42
15 18 1.19
15 19 1.22
15 20 0.93
15 21 1.88
15 22 1.02
16 17 0.52
16 18 1.17
16 19 1.12
16 20 0.88
16 21 1.8
16 22 1.02
17 18 1.13
17 19 0.98
17 20 0.52
17 21 2.13
17 22 0.63
18 19 0.36
18 20 0.68
18 21 0.91
18 22 1.04
19 20 0.48
19 21 1.13
19 22 0.85
20 21 1.69
20 22 0.49
21 22 2.14