0 1 1.1
0 2 0.86
0 3 0.56
0 4 0.72
0 5 1.02
0 6 1.05
0 7 1
0 8 1.18
0 9 1.13
0 10 1.09
0 11 0.94
0 12 0.84
0 13 1.04
0 14 1.26
0 15 1.18
0 16 1.82
0 17 1.29
0 18 1.36
0 19 1.48
0 20 1.91
0 21 1.71
0 22 1.59
0 23 2.02
0 24 1.92
0 25 1.47
0 26 1.32
0 27 1.63
0 28 1.51
0 29 1.49
0 30 0.89
0 31 1.02
0 32 1.03
1 2 0.37
1 3 0.57
1 4 1.02
1 5 0.35
1 6 0.4
1 7 0.39
1 8 0.44
1 9 0.43
1 10 0.4
1 11 0.3
1 12 0.31
1 13 0.1
1 14 0.13
1 15 0.15
1 16 0.85
1 17 0.28
1 18 0.43
1 19 0.4
1 20 0.65
1 21 0.57
1 22 0.56
1 23 0.85
1 24 0.7
1 25 0.41
1 26 0.43
1 27 0.54
1 28 0.56
1 29 0.61
1 30 0.36
1 31 0.17
1 32 0.35
2 3 0.32
2 4 0.69
2 5 0.21
2 6 0.27
2 7 0.27
2 8 0.31
2 9 0.34
2 10 0.31
2 11 0.2
2 12 0.06
2 13 0.29
2 14 0.48
2 15 0.44
2 16 1.2
2 17 0.62
2 18 0.62
2 19 0.66
2 20 0.88
2 21 0.81
2 22 0.83
2 23 1.12
2 24 1.09
2 25 0.73
2 26 0.75
2 27 0.84
2 28 0.88
2 29 0.9
2 30 0.48
2 31 0.39
2 32 0.24
3 4 0.48
3 5 0.45
3 6 0.46
3 7 0.53
3 8 0.5
3 9 0.61
3 10 0.66
3 11 0.44
3 12 0.4
3 13 0.63
3 14 0.64
3 15 0.74
3 16 1.45
3 17 0.91
3 18 0.91
3 19 0.9
3 20 1.14
3 21 1.08
3 22 1.25
3 23 1.52
3 24 1.35
3 25 1.02
3 26 1.06
3 27 1.12
3 28 1.29
3 29 1.01
3 30 0.62
3 31 0.51
3 32 0.59
4 5 0.55
4 6 0.62
4 7 0.6
4 8 0.67
4 9 0.73
4 10 0.84
4 11 0.7
4 12 0.67
4 13 0.95
4 14 1.06
4 15 1.11
4 16 1.7
4 17 1.2
4 18 1.15
4 19 1.03
4 20 1.43
4 21 1.38
4 22 1.38
4 23 1.43
4 24 1.42
4 25 1.32
4 26 1.26
4 27 1.6
4 28 1.42
4 29 1.44
4 30 1.13
4 31 0.99
4 32 0.69
5 6 0.03
5 7 0.05
5 8 0.11
5 9 0.12
5 10 0.16
5 11 0.13
5 12 0.14
5 13 0.3
5 14 0.49
5 15 0.55
5 16 1.3
5 17 0.59
5 18 0.56
5 19 0.51
5 20 0.73
5 21 0.61
5 22 0.77
5 23 0.99
5 24 0.9
5 25 0.76
5 26 0.76
5 27 0.84
5 28 1.09
5 29 0.88
5 30 0.66
5 31 0.44
5 32 0.11
6 7 0.02
6 8 0.07
6 9 0.07
6 10 0.14
6 11 0.11
6 12 0.18
6 13 0.31
6 14 0.56
6 15 0.5
6 16 1.36
6 17 0.59
6 18 0.47
6 19 0.51
6 20 0.67
6 21 0.58
6 22 0.68
6 23 0.9
6 24 1.04
6 25 0.64
6 26 0.72
6 27 0.81
6 28 1.1
6 29 0.91
6 30 0.73
6 31 0.48
6 32 0.07
7 8 0.07
7 9 0.08
7 10 0.11
7 11 0.12
7 12 0.19
7 13 0.32
7 14 0.48
7 15 0.55
7 16 1.21
7 17 0.61
7 18 0.45
7 19 0.47
7 20 0.74
7 21 0.64
7 22 0.65
7 23 0.98
7 24 0.94
7 25 0.7
7 26 0.8
7 27 0.86
7 28 0.95
7 29 0.89
7 30 0.66
7 31 0.54
7 32 0.08
8 9 0.02
8 10 0.07
8 11 0.15
8 12 0.24
8 13 0.35
8 14 0.51
8 15 0.54
8 16 1.19
8 17 0.56
8 18 0.4
8 19 0.51
8 20 0.7
8 21 0.59
8 22 0.62
8 23 0.91
8 24 0.82
8 25 0.62
8 26 0.71
8 27 0.88
8 28 0.96
8 29 1.02
8 30 0.79
8 31 0.57
8 32 0.06
9 10 0.07
9 11 0.18
9 12 0.23
9 13 0.36
9 14 0.5
9 15 0.48
9 16 1.32
9 17 0.61
9 18 0.44
9 19 0.45
9 20 0.61
9 21 0.5
9 22 0.72
9 23 0.89
9 24 0.89
9 25 0.67
9 26 0.83
9 27 0.88
9 28 1.01
9 29 1.05
9 30 0.67
9 31 0.51
9 32 0.09
10 11 0.16
10 12 0.3
10 13 0.32
10 14 0.54
10 15 0.51
10 16 1.12
10 17 0.53
10 18 0.34
10 19 0.41
10 20 0.68
10 21 0.47
10 22 0.61
10 23 0.92
10 24 0.77
10 25 0.65
10 26 0.71
10 27 0.89
10 28 0.94
10 29 0.9
10 30 0.79
10 31 0.55
10 32 0.1
11 12 0.11
11 13 0.2
11 14 0.4
11 15 0.4
11 16 1.15
11 17 0.52
11 18 0.42
11 19 0.42
11 20 0.69
11 21 0.57
11 22 0.68
11 23 1.03
11 24 0.8
11 25 0.66
11 26 0.62
11 27 0.81
11 28 0.83
11 29 0.88
11 30 0.63
11 31 0.36
11 32 0.08
12 13 0.31
12 14 0.41
12 15 0.49
12 16 1.2
12 17 0.56
12 18 0.54
12 19 0.55
12 20 0.81
12 21 0.68
12 22 0.72
12 23 1.1
12 24 0.94
12 25 0.72
12 26 0.73
12 27 0.93
12 28 1.02
12 29 0.97
12 30 0.59
12 31 0.33
12 32 0.18
13 14 0.19
13 15 0.19
13 16 1.06
13 17 0.28
13 18 0.33
13 19 0.36
13 20 0.63
13 21 0.51
13 22 0.54
13 23 0.73
13 24 0.64
13 25 0.43
13 26 0.47
13 27 0.68
13 28 0.6
13 29 0.71
13 30 0.45
13 31 0.24
13 32 0.24
14 15 0.07
14 16 0.7
14 17 0.18
14 18 0.4
14 19 0.43
14 20 0.7
14 21 0.61
14 22 0.52
14 23 0.77
14 24 0.67
14 25 0.33
14 26 0.28
14 27 0.45
14 28 0.45
14 29 0.5
14 30 0.35
14 31 0.2
14 32 0.49
15 16 0.79
15 17 0.13
15 18 0.33
15 19 0.35
15 20 0.53
15 21 0.52
15 22 0.47
15 23 0.72
15 24 0.59
15 25 0.25
15 26 0.31
15 27 0.38
15 28 0.49
15 29 0.51
15 30 0.46
15 31 0.27
15 32 0.43
16 17 0.72
16 18 0.96
16 19 0.89
16 20 0.88
16 21 1.01
16 22 0.93
16 23 0.91
16 24 0.68
16 25 0.63
16 26 0.49
16 27 0.35
16 28 0.31
16 29 0.54
16 30 0.99
16 31 0.87
16 32 1.1
17 18 0.28
17 19 0.25
17 20 0.47
17 21 0.44
17 22 0.4
17 23 0.53
17 24 0.49
17 25 0.13
17 26 0.21
17 27 0.31
17 28 0.42
17 29 0.59
17 30 0.55
17 31 0.36
17 32 0.51
18 19 0.02
18 20 0.28
18 21 0.19
18 22 0.2
18 23 0.49
18 24 0.38
18 25 0.31
18 26 0.49
18 27 0.55
18 28 0.74
18 29 0.78
18 30 0.8
18 31 0.58
18 32 0.43
19 20 0.28
19 21 0.16
19 22 0.2
19 23 0.44
19 24 0.41
19 25 0.32
19 26 0.46
19 27 0.55
19 28 0.75
19 29 0.71
19 30 0.76
19 31 0.6
19 32 0.44
20 21 0.11
20 22 0.11
20 23 0.22
20 24 0.34
20 25 0.42
20 26 0.67
20 27 0.74
20 28 0.89
20 29 1.09
20 30 0.97
20 31 0.76
20 32 0.61
21 22 0.13
21 23 0.32
21 24 0.35
21 25 0.39
21 26 0.6
21 27 0.62
21 28 0.81
21 29 0.85
21 30 0.99
21 31 0.78
21 32 0.53
22 23 0.25
22 24 0.27
22 25 0.36
22 26 0.53
22 27 0.6
22 28 0.63
22 29 0.76
22 30 0.98
22 31 0.74
22 32 0.57
23 24 0.15
23 25 0.46
23 26 0.68
23 27 0.62
23 28 0.81
23 29 0.99
23 30 1.19
23 31 1.01
23 32 0.83
24 25 0.35
24 26 0.52
24 27 0.53
24 28 0.59
24 29 0.8
24 30 1.12
24 31 0.94
24 32 0.75
25 26 0.2
25 27 0.26
25 28 0.35
25 29 0.58
25 30 0.73
25 31 0.49
25 32 0.6
26 27 0.13
26 28 0.2
26 29 0.33
26 30 0.48
26 31 0.46
26 32 0.72
27 28 0.14
27 29 0.31
27 30 0.68
27 31 0.57
27 32 0.8
28 29 0.25
28 30 0.56
28 31 0.62
28 32 0.89
29 30 0.42
29 31 0.53
29 32 0.87
30 31 0.21
30 32 0.67
31 32 0.44